…
    ## Rows: 52179 Columns: 12
    ## ── Column specification ────────────────────────────────────────────────────────
    ## Delimiter: ","
    ## chr (9): uid, victim_last, victim_first, victim_race, victim_age, victim_sex...
    ## dbl (3): reported_date, lat, lon
    ## 
    ## ℹ Use `spec()` to retrieve the full column specification for this data.
    ## ℹ Specify the column types or set `show_col_types = FALSE` to quiet this message.

``` r
homicides_data
```

    ## # A tibble: 39,693 × 14
    ##    uid       repor…¹ city_…² victi…³ victi…⁴ victi…⁵ victi…⁶ victi…⁷ city  state
    ##    <chr>       <dbl> <chr>   <chr>   <chr>   <chr>     <dbl> <chr>   <chr> <chr>
    ##  1 Alb-0000…  2.01e7 Albuqu… SATTER… VIVIANA White        15 Female  Albu… NM   
    ##  2 Alb-0000…  2.01e7 Albuqu… MULA    VIVIAN  White        72 Female  Albu… NM   
    ##  3 Alb-0000…  2.01e7 Albuqu… BOOK    GERALD… White        91 Female  Albu… NM   
    ##  4 Alb-0000…  2.01e7 Albuqu… MARTIN… GUSTAVO White        56 Male    Albu… NM   
    ##  5 Alb-0000…  2.01e7 Albuqu… LUJAN   KEVIN   White        NA Male    Albu… NM   
    ##  6 Alb-0000…  2.01e7 Albuqu… GRAY    STEFAN… White        43 Female  Albu… NM   
    ##  7 Alb-0000…  2.01e7 Albuqu… DAVID   LARRY   White        52 Male    Albu… NM   
    ##  8 Alb-0000…  2.01e7 Albuqu… BRITO   ELIZAB… White        22 Female  Albu… NM   
    ##  9 Alb-0000…  2.01e7 Albuqu… KING    TEVION  Black        15 Male    Albu… NM   
    ## 10 Alb-0000…  2.01e7 Albuqu… BOYKIN  CEDRIC  Black        25 Male    Albu… NM   
    ## # … with 39,683 more rows, 4 more variables: lat <dbl>, lon <dbl>,
    ## #   disposition <chr>, homicide <int>, and abbreviated variable names
    ## #   ¹​reported_date, ²​city_state, ³​victim_last, ⁴​victim_first, ⁵​victim_race,
    ## #   ⁶​victim_age, ⁷​victim_sex
…
    ## [1] "integer"

``` r
#For the city of Baltimore, MD, use the glm function to fit a logistic regression with resolved vs unresolved as the outcome and victim age, sex and race as predictors. Save the output of glm as an R object; apply the broom::tidy to this object; and obtain the estimate and confidence interval of the adjusted odds ratio for solving homicides comparing male victims to female victims keeping all other variables fixed.

baltimore_data = 
  homicides_data %>% 
  filter(city_state == "Baltimore, MD") %>% 
  select(victim_age, victim_sex, victim_race, homicide)
baltimore_data
```

    ## # A tibble: 2,753 × 4
    ##    victim_age victim_sex victim_race homicide
    ##         <dbl> <chr>      <chr>          <int>
    ##  1         17 Male       Black              0
    ##  2         26 Male       Black              0
    ##  3         21 Male       Black              0
    ##  4         61 Male       White              1
    ##  5         46 Male       Black              1
    ##  6         27 Male       Black              1
    ##  7         21 Male       Black              1
    ##  8         16 Male       Black              1
    ##  9         21 Male       Black              1
    ## 10         44 Female     Black              1
    ## # … with 2,743 more rows
…
  city_glm_result
  
  }

city_state_name = unique(homicides_data$city_state)
city_glm_test = 
  expand_grid(city_state = city_state_name) %>% 
  mutate(test_results = map(city_state, cities_glm)) %>% 
  unnest(test_results) 

city_glm_test
```

    ## # A tibble: 47 × 6
    ##    city_state      term             estimate    OR conf_low conf_high
    ##    <chr>           <chr>               <dbl> <dbl>    <dbl>     <dbl>
    ##  1 Albuquerque, NM victim_sexMale  0.570     1.77     0.831     3.76 
    ##  2 Atlanta, GA     victim_sexMale  0.0000771 1.00     0.684     1.46 
    ##  3 Baltimore, MD   victim_sexMale -0.854     0.426    0.325     0.558
    ##  4 Baton Rouge, LA victim_sexMale -0.964     0.381    0.209     0.695
    ##  5 Birmingham, AL  victim_sexMale -0.139     0.870    0.574     1.32 
    ##  6 Boston, MA      victim_sexMale -0.395     0.674    0.356     1.28 
    ##  7 Buffalo, NY     victim_sexMale -0.653     0.521    0.290     0.935
    ##  8 Charlotte, NC   victim_sexMale -0.123     0.884    0.557     1.40 
    ##  9 Chicago, IL     victim_sexMale -0.891     0.410    0.336     0.501
    ## 10 Cincinnati, OH  victim_sexMale -0.917     0.400    0.236     0.677
    ## # … with 37 more rows
…
